Microsoft HTML Help Compiler 4.74.8702

Compiling c:\DesaMhcad\DesaDotNet\mhCad\mhCad\mhCad.chm


Compile time: 0 minutes, 1 second
10	Topics
7	Local links
0	Internet links
1	Graphic


Created c:\DesaMhcad\DesaDotNet\mhCad\mhCad\mhCad.chm, 44,973 bytes
Compression decreased file by 14,000 bytes.
